[gd_scene load_steps=2 format=2]

[ext_resource path="res://scenes/interface/_components/explicit_h_slider/ExplicitHSlider.gd" type="Script" id=1]

[node name="ExplicitHSlider" type="Control"]
margin_right = 640.0
margin_bottom = 40.0
rect_min_size = Vector2( 640, 40 )
script = ExtResource( 1 )

[node name="VBox" type="VBoxContainer" parent="."]
margin_right = 640.0
margin_bottom = 40.0
rect_min_size = Vector2( 640, 0 )

[node name="HBox" type="HBoxContainer" parent="VBox"]
margin_right = 640.0
margin_bottom = 14.0

[node name="Text" type="Label" parent="VBox/HBox"]
margin_right = 318.0
margin_bottom = 14.0
rect_min_size = Vector2( 318, 0 )
text = "Text here..."

[node name="Value" type="Label" parent="VBox/HBox"]
margin_left = 322.0
margin_right = 640.0
margin_bottom = 14.0
rect_min_size = Vector2( 318, 0 )
text = "0"
align = 2

[node name="HSlider" type="HSlider" parent="VBox"]
margin_top = 18.0
margin_right = 640.0
margin_bottom = 34.0
max_value = 128.0
rounded = true
ticks_on_borders = false
